{
  "title": "To88",
  "packageName": "org.cocos2d.demo",
  "startScene": "23801a30-1f18-4d21-8c94-425ac95832d9",
  "excludeScenes": [
    "066c7d69-e87a-4811-89a6-67791efbcc77",
    "8cdac4fe-0617-4622-8714-3d2c4d79725c"
  ],
  "orientation": {
    "landscapeLeft": true,
    "landscapeRight": true,
    "portrait": false,
    "upsideDown": false
  },
  "webOrientation": "landscape",
  "inlineSpriteFrames": false,
  "inlineSpriteFrames_native": true,
  "mainCompressionType": "default",
  "mainIsRemote": false,
  "optimizeHotUpdate": true,
  "md5Cache": false,
  "nativeMd5Cache": false,
  "encryptJs": true,
  "xxteaKey": "8c394764-9de1-43",
  "zipCompressJs": true,
  "fb-instant-games": {},
  "android": {
    "REMOTE_SERVER_ROOT": "",
    "packageName": "com.To88"
  },
  "ios": {
    "REMOTE_SERVER_ROOT": "",
    "ios_enable_jit": true,
    "packageName": "org.cocos2d.demo"
  },
  "mac": {
    "REMOTE_SERVER_ROOT": "",
    "height": 720,
    "packageName": "org.cocos2d.demo",
    "width": 1280
  },
  "win32": {
    "REMOTE_SERVER_ROOT": "",
    "height": 720,
    "width": 1280
  },
  "android-instant": {
    "REMOTE_SERVER_ROOT": "",
    "host": "",
    "packageName": "org.cocos2d.demo",
    "pathPattern": "",
    "recordPath": "",
    "scheme": "https",
    "skipRecord": false
  },
  "appBundle": false,
  "agreements": {},
  "includeSDKBox": false,
  "mergeStartScene": true
}
