{
  "__type__": "cc.AnimationClip",
  "_name": "openMenu",
  "_objFlags": 0,
  "_native": "",
  "_duration": 0.3333333333333333,
  "sample": 60,
  "speed": 1,
  "wrapMode": 1,
  "curveData": {
    "props": {
      "x": [
        {
          "frame": 0,
          "value": -1070.575
        },
        {
          "frame": 0.3333333333333333,
          "value": -652.427
        }
      ]
    }
  },
  "events": []
}